Data management in dexter
…
Working without a database

Many functions in dexter accept an argument dataSrc. A dataSrc can be either a dexter project database or a data.frame or a tibble, in long format, containing at least the columns person_id, item_id, item_score and, for a limited number of functions, response. See the help files for details.

Tidy data

All data in dexter is stored and treated as normalized data, which is often called tidy data in the R world. As a result dexter ties in nicely with the Tidyverse packages and it is easy to extract tidy data from dexter and use it in ggplot or for your own summaries and statistics. As an example we look at the distribution of responses for the items in the verbal aggression dataset.

get_responses(db, columns = c('item_id','response')) %>%
  group_by(item_id, response) %>%
  summarise(count = n()) %>%
  slice(1:10)

## # A tibble: 72 x 3
## # Groups:   item_id [24]
##    item_id     response count
##    <chr>       <chr>    <int>
##  1 S1DoCurse   0           91
##  2 S1DoCurse   1          108
##  3 S1DoCurse   2          117
##  4 S1DoScold   0          136
##  5 S1DoScold   1           97
##  6 S1DoScold   2           83
##  7 S1DoShout   0          208
##  8 S1DoShout   1           68
##  9 S1DoShout   2           40
## 10 S1WantCurse 0           91
## # ... with 62 more rows
…
