Dexter: The Fundamentals
…
data("verbAggrProperties")
head(verbAggrProperties)

##          item behavior mode blame situation
## 1   S1DoCurse    Curse   Do Other       Bus
## 2   S1DoScold    Scold   Do Other       Bus
## 3   S1DoShout    Shout   Do Other       Bus
## 4 S1WantCurse    Curse Want Other       Bus
## 5 S1WantScold    Scold Want Other       Bus
## 6 S1WantShout    Shout Want Other       Bus

add_item_properties(db, verbAggrProperties)
show_item_properties(db)

## # A tibble: 96 x 3
## # Groups:   value [11]
##    item_property value     N
##            <chr> <chr> <int>
##  1      behavior Curse     8
##  2      behavior Scold     8
##  3      behavior Shout     8
##  4      behavior Curse     8
##  5      behavior Scold     8
##  6      behavior Shout     8
##  7      behavior Curse     8
##  8      behavior Scold     8
##  9      behavior Shout     8
## 10      behavior Curse     8
## # ... with 86 more rows

show_person_properties(db)

## # A tibble: 316 x 3
## # Groups:   value [2]
##    person_property  value     N
##              <chr>  <chr> <int>
##  1          gender   Male    73
##  2          gender Female   243
##  3          gender   Male    73
##  4          gender Female   243
##  5          gender   Male    73
##  6          gender   Male    73
##  7          gender Female   243
##  8          gender Female   243
##  9          gender Female   243
## 10          gender Female   243
## # ... with 306 more rows
…
